FFT,L (nm),Vcc (V),wl,f (MHz),t (us),pwr (mW),FFT/mJ,FFT/mJ_n,type,note
64,65,1.00,16,250,0.84,6.16,192490,192490,mem,mb       
128,65,1.00,16,250,2.12,6.25,75298,75298,mem,mb       
256,65,1.00,16,250,4.17,6.35,37720,37720,mem,mb       
512,65,1.00,16,250,10.32,6.53,14855,14855,mem,mb       
1024,65,1.00,16,250,20.56,6.78,7175,7175,mem,mb       
2048,65,1.00,16,250,49.23,7.14,2843,2843,mem,mb       
4096,65,1.00,16,250,98.38,7.62,1334,1334,mem,mb       
8192,65,1.00,16,250,229.45,8.33,523,523,mem,mb       
16384,65,1.00,16,250,458.83,9.72,224,224,mem,mb       
